{
  "dependencies_target": [
    "intltool",
    "libpoppler-qt5-dev",
    "libquazip5-dev",
    "libpodofo-utils",
    "qtwebengine5-dev"
  ],
  "clickable_minimum_required": "7.0.0",
  "qt_version": "5.12",
  "install_lib": [
    "/usr/lib/${ARCH_TRIPLET}/libquazip5.so.*"
  ],
  "builder": "cmake",
  "dependencies_host": [
    "gettext"
  ]
}
